*** Darwin 12x16 ***
Turn = 0.
  0123456789012345
0 ................
1 ................
2 .............t..
3 ..............r.
4 ....h.....t.....
5 ................
6 .r..............
7 ................
8 ................
9 ................
0 ............t...
1 ................

Turn = 88.
  0123456789012345
0 ................
1 ................
2 .............t..
3 ................
4 h.........t.....
5 ................
6 ................
7 ................
8 ................
9 ................
0 ............t...
1 ............tt..

Turn = 176.
  0123456789012345
0 ................
1 ................
2 .............t..
3 ................
4 h.........t.....
5 ................
6 ................
7 ................
8 ................
9 ................
0 ............t...
1 ............tt..

Turn = 264.
  0123456789012345
0 ................
1 ................
2 .............t..
3 ................
4 h.........t.....
5 ................
6 ................
7 ................
8 ................
9 ................
0 ............t...
1 ............tt..

Turn = 352.
  0123456789012345
0 ................
1 ................
2 .............t..
3 ................
4 h.........t.....
5 ................
6 ................
7 ................
8 ................
9 ................
0 ............t...
1 ............tt..

Turn = 440.
  0123456789012345
0 ................
1 ................
2 .............t..
3 ................
4 h.........t.....
5 ................
6 ................
7 ................
8 ................
9 ................
0 ............t...
1 ............tt..

Turn = 528.
  0123456789012345
0 ................
1 ................
2 .............t..
3 ................
4 h.........t.....
5 ................
6 ................
7 ................
8 ................
9 ................
0 ............t...
1 ............tt..

*** Darwin 13x16 ***
Turn = 0.
  0123456789012345
0 ................
1 ..........r.....
2 ..r.............
3 ................
4 ..............h.
5 ................
6 ........t.......
7 ....f...........
8 ................
9 ......t.........
0 ................
1 ................
2 ................

Turn = 125.
  0123456789012345
0 ..............r.
1 ................
2 ................
3 ................
4 ................
5 ................
6 ................
7 ....f...........
8 r...............
9 ......tt........
0 ................
1 ................
2 ....r...........

Turn = 250.
  0123456789012345
0 ...............r
1 ................
2 ................
3 ................
4 ................
5 ................
6 ................
7 ....f...........
8 ................
9 ......ttt.......
0 ................
1 ................
2 .......r........

Turn = 375.
  0123456789012345
0 ................
1 ................
2 ................
3 ................
4 ................
5 r...............
6 ................
7 ...rf...........
8 ................
9 ......ttt.......
0 ................
1 ................
2 ................

Turn = 500.
  0123456789012345
0 ................
1 ................
2 ................
3 ................
4 ................
5 ...............r
6 ................
7 ................
8 ................
9 ......ttt.......
0 ................
1 ...........r....
2 ..........r.....

Turn = 625.
  0123456789012345
0 ...r............
1 ................
2 ................
3 ................
4 ................
5 ................
6 ................
7 ................
8 ................
9 ......ttt.......
0 ................
1 ................
2 .....r..r.......

Turn = 750.
  0123456789012345
0 ...............r
1 ................
2 ................
3 ................
4 ................
5 ................
6 ................
7 ................
8 ................
9 r.....ttt.......
0 ................
1 ................
2 .............r..

Turn = 875.
  0123456789012345
0 ................
1 ................
2 ................
3 ................
4 ................
5 ...............r
6 ................
7 ................
8 ......t.........
9 ......ttt...r...
0 ................
1 ................
2 ................

*** Darwin 2x13 ***
Turn = 0.
  0123456789012
0 .h..rr..hrf.f
1 rff........hf

Turn = 57.
  0123456789012
0 ....r.rrr.r..
1 ...rr.rrrr..r

Turn = 114.
  0123456789012
0 rrrr.r.r.r...
1 rrr..r.r.....

*** Darwin 2x19 ***
Turn = 0.
  0123456789012345678
0 t.............h...t
1 ....r............fr

Turn = 170.
  0123456789012345678
0 ..rrr.r.r..........
1 r..................

Turn = 340.
  0123456789012345678
0 r...r.....r......rr
1 ........r..........

*** Darwin 9x3 ***
Turn = 0.
  012
0 ...
1 ...
2 .h.
3 ...
4 ...
5 rt.
6 ...
7 tt.
8 ..h

Turn = 172.
  012
0 ..r
1 ...
2 ...
3 ...
4 ...
5 ..r
6 .rr
7 r..
8 r..

Turn = 344.
  012
0 .rr
1 ..r
2 r..
3 ...
4 .r.
5 ..r
6 ...
7 ...
8 ...

Turn = 516.
  012
0 r..
1 r..
2 .r.
3 ..r
4 r..
5 ...
6 ...
7 ..r
8 ...

Turn = 688.
  012
0 rr.
1 ...
2 ...
3 ...
4 ...
5 ...
6 r..
7 ..r
8 r.r

*** Darwin 9x1 ***
Turn = 0.
  0
0 h
1 t
2 r
3 t
4 .
5 t
6 f
7 .
8 f

Turn = 22.
  0
0 t
1 t
2 t
3 t
4 .
5 t
6 t
7 .
8 f

Turn = 44.
  0
0 t
1 t
2 t
3 t
4 .
5 t
6 t
7 .
8 f

Turn = 66.
  0
0 t
1 t
2 t
3 t
4 .
5 t
6 t
7 .
8 f

Turn = 88.
  0
0 t
1 t
2 t
3 t
4 .
5 t
6 t
7 .
8 f

Turn = 110.
  0
0 t
1 t
2 t
3 t
4 .
5 t
6 t
7 .
8 f

Turn = 132.
  0
0 t
1 t
2 t
3 t
4 .
5 t
6 t
7 .
8 f

Turn = 154.
  0
0 t
1 t
2 t
3 t
4 .
5 t
6 t
7 .
8 f

Turn = 176.
  0
0 t
1 t
2 t
3 t
4 .
5 t
6 t
7 .
8 f

Turn = 198.
  0
0 t
1 t
2 t
3 t
4 .
5 t
6 t
7 .
8 f

Turn = 220.
  0
0 t
1 t
2 t
3 t
4 .
5 t
6 t
7 .
8 f

Turn = 242.
  0
0 t
1 t
2 t
3 t
4 .
5 t
6 t
7 .
8 f

Turn = 264.
  0
0 t
1 t
2 t
3 t
4 .
5 t
6 t
7 .
8 f

Turn = 286.
  0
0 t
1 t
2 t
3 t
4 .
5 t
6 t
7 .
8 f

Turn = 308.
  0
0 t
1 t
2 t
3 t
4 .
5 t
6 t
7 .
8 f

Turn = 330.
  0
0 t
1 t
2 t
3 t
4 .
5 t
6 t
7 .
8 f

Turn = 352.
  0
0 t
1 t
2 t
3 t
4 .
5 t
6 t
7 .
8 f

Turn = 374.
  0
0 t
1 t
2 t
3 t
4 .
5 t
6 t
7 .
8 f

Turn = 396.
  0
0 t
1 t
2 t
3 t
4 .
5 t
6 t
7 .
8 f

Turn = 418.
  0
0 t
1 t
2 t
3 t
4 .
5 t
6 t
7 .
8 f

Turn = 440.
  0
0 t
1 t
2 t
3 t
4 .
5 t
6 t
7 .
8 f

Turn = 462.
  0
0 t
1 t
2 t
3 t
4 .
5 t
6 t
7 .
8 f

Turn = 484.
  0
0 t
1 t
2 t
3 t
4 .
5 t
6 t
7 .
8 f

Turn = 506.
  0
0 t
1 t
2 t
3 t
4 .
5 t
6 t
7 .
8 f

Turn = 528.
  0
0 t
1 t
2 t
3 t
4 .
5 t
6 t
7 .
8 f

Turn = 550.
  0
0 t
1 t
2 t
3 t
4 .
5 t
6 t
7 .
8 f

*** Darwin 8x9 ***
Turn = 0.
  012345678
0 .........
1 .........
2 .........
3 ....f...h
4 .........
5 .........
6 .........
7 ...f.....

Turn = 51.
  012345678
0 ........h
1 .........
2 .........
3 ....f....
4 .........
5 .........
6 .........
7 ...f.....

Turn = 102.
  012345678
0 ........h
1 .........
2 .........
3 ....f....
4 .........
5 .........
6 .........
7 ...f.....

Turn = 153.
  012345678
0 ........h
1 .........
2 .........
3 ....f....
4 .........
5 .........
6 .........
7 ...f.....

Turn = 204.
  012345678
0 ........h
1 .........
2 .........
3 ....f....
4 .........
5 .........
6 .........
7 ...f.....

*** Darwin 17x14 ***
Turn = 0.
  01234567890123
0 ...t...tf.....
1 f.............
2 .......f......
3 ....t.........
4 ....t.........
5 ..............
6 ..rfr.........
7 ........f.....
8 .t............
9 ..............
0 ..............
1 ...t..........
2 .....h........
3 .....h........
4 ...f......f...
5 ...........f..
6 ......r.......

Turn = 171.
  01234567890123
0 ...........r..
1 ..............
2 r.....t.......
3 ...ttttt......
4 ...tt.t.rr...r
5 ..............
6 ..............
7 ..............
8 ..............
9 ..............
0 ..........r...
1 ..............
2 ..............
3 ..............
4 .r............
5 ..............
6 ...r...rr.....

Turn = 342.
  01234567890123
0 r.r...........
1 .r............
2 .r....t.......
3 r...rtttt.....
4 ....t.t.......
5 ....t.t......r
6 ..............
7 ..............
8 r..r..........
9 ..............
0 ..............
1 ..............
2 r.............
3 ..............
4 ..............
5 ..............
6 ..............

Turn = 513.
  01234567890123
0 ..............
1 ..............
2 ..............
3 .....ttt......
4 .....ttt......
5 ......tt......
6 ......t.......
7 ..r...........
8 ...r..........
9 ..............
0 .............r
1 .............r
2 .........r....
3 ..............
4 .......r......
5 ..............
6 r...r..r.....r

Turn = 684.
  01234567890123
0 r.........r...
1 ..r...........
2 .......r....r.
3 .......r...r.r
4 .....r..tt..r.
5 ............r.
6 ..............
7 .............r
8 ..............
9 .....r........
0 ..............
1 ..............
2 ..............
3 ..............
4 .r............
5 r.............
6 .r........r...

Turn = 855.
  01234567890123
0 .........r....
1 .............r
2 ......r.......
3 .............r
4 .............r
5 ............r.
6 ..............
7 .............r
8 .............r
9 .........r...r
0 ..........rr.r
1 ..........r.r.
2 .........r....
3 ..............
4 ..............
5 r.............
6 .r...........r

Turn = 1026.
  01234567890123
0 r..r.........r
1 rr............
2 r.............
3 ..............
4 ..............
5 ..............
6 .r............
7 ..............
8 ..............
9 r...........r.
0 .r............
1 ..r...........
2 ............r.
3 ............rr
4 ..r....r......
5 ...r....r.....
6 .........r....

Turn = 1197.
  01234567890123
0 .....r....r.r.
1 .............r
2 ........r....r
3 ......r.......
4 ..............
5 r............r
6 .r........r...
7 r.............
8 r.............
9 .............r
0 ..............
1 ..............
2 ..............
3 ...........r..
4 .......r...r..
5 ........r.....
6 ........r.....

Turn = 1368.
  01234567890123
0 ..r..rr.......
1 ..............
2 ....r......r..
3 r.............
4 ........r..r..
5 .............r
6 .......r....r.
7 .........r..r.
8 ..........r...
9 ......rr......
0 ......r.......
1 ..............
2 ..............
3 ..............
4 ..............
5 ..............
6 ...r..r.......

Turn = 1539.
  01234567890123
0 ............r.
1 ......r.......
2 ..............
3 ..............
4 ........r.....
5 .......r......
6 .....r........
7 r.....r.......
8 r.............
9 ..............
0 ..............
1 ..............
2 .............r
3 ..............
4 ...r..........
5 .....rr....r..
6 r.r..r....rr.r

*** Darwin 13x9 ***
Turn = 0.
  012345678
0 hf.r.....
1 f.t...r..
2 .......h.
3 .........
4 .........
5 .........
6 ......h..
7 ..r...f..
8 .......h.
9 .....tr..
0 ...t.....
1 ...h.....
2 ......h..

Turn = 180.
  012345678
0 .........
1 .........
2 .........
3 .........
4 .........
5 .........
6 .........
7 ......t.t
8 .....tt.t
9 .....tttt
0 .....tttt
1 .....tt..
2 .....t...

Turn = 360.
  012345678
0 .........
1 .........
2 .........
3 .........
4 .........
5 .........
6 .........
7 ......t.t
8 .....tt.t
9 .....tttt
0 .....tttt
1 .....tt..
2 .....t...

Turn = 540.
  012345678
0 .........
1 .........
2 .........
3 .........
4 .........
5 .........
6 .........
7 ......t.t
8 .....tt.t
9 .....tttt
0 .....tttt
1 .....tt..
2 .....t...

Turn = 720.
  012345678
0 .........
1 .........
2 .........
3 .........
4 .........
5 .........
6 .........
7 ......t.t
8 .....tt.t
9 .....tttt
0 .....tttt
1 .....tt..
2 .....t...

Turn = 900.
  012345678
0 .........
1 .........
2 .........
3 .........
4 .........
5 .........
6 .........
7 ......t.t
8 .....tt.t
9 .....tttt
0 .....tttt
1 .....tt..
2 .....t...

Turn = 1080.
  012345678
0 .........
1 .........
2 .........
3 .........
4 .........
5 .........
6 .........
7 ......t.t
8 .....tt.t
9 .....tttt
0 .....tttt
1 .....tt..
2 .....t...

*** Darwin 10x5 ***
Turn = 0.
  01234
0 .....
1 .....
2 ...t.
3 ...rh
4 ..r.r
5 .....
6 .....
7 .....
8 .....
9 f....

Turn = 120.
  01234
0 .....
1 .....
2 ...t.
3 ...tt
4 ...tt
5 .....
6 .....
7 .....
8 .....
9 f....

Turn = 240.
  01234
0 .....
1 .....
2 ...t.
3 ...tt
4 ...tt
5 .....
6 .....
7 .....
8 .....
9 f....

Turn = 360.
  01234
0 .....
1 .....
2 ...t.
3 ...tt
4 ...tt
5 .....
6 .....
7 .....
8 .....
9 f....

Turn = 480.
  01234
0 .....
1 .....
2 ...t.
3 ...tt
4 ...tt
5 .....
6 .....
7 .....
8 .....
9 f....

*** Darwin 3x6 ***
Turn = 0.
  012345
0 t.h.rf
1 f..ttr
2 f.htt.

Turn = 169.
  012345
0 t...tt
1 t.ttt.
2 t.tttt

Turn = 338.
  012345
0 t...tt
1 t.ttt.
2 t.tttt

*** Darwin 17x19 ***
Turn = 0.
  0123456789012345678
0 .................f.
1 ....t.....fr.......
2 ...................
3 ...................
4 ...................
5 ...................
6 ...................
7 ...................
8 ...................
9 ..........h........
0 ...................
1 .t.................
2 ...................
3 ...................
4 ....f..............
5 ...................
6 ...................

Turn = 126.
  0123456789012345678
0 ......r............
1 ....t..............
2 ...................
3 ...................
4 ...................
5 ...................
6 ...................
7 ...................
8 ..........r........
9 .........r.........
0 ...................
1 ...................
2 ...................
3 ...................
4 ....f..............
5 ...................
6 ......r.......r....

Turn = 252.
  0123456789012345678
0 ...................
1 ....t..............
2 ...................
3 ...................
4 ....r..............
5 ...................
6 ...................
7 ...................
8 r..................
9 ..r................
0 .r.................
1 ...................
2 ...................
3 ...................
4 ..................r
5 ...................
6 r..................

Turn = 378.
  0123456789012345678
0 ........r..........
1 ...................
2 ...........r.......
3 ...................
4 ...................
5 ...................
6 ...................
7 ...................
8 ...................
9 ...r...............
0 r..................
1 ...................
2 ..................r
3 r..................
4 ...................
5 ...................
6 ............r......

*** Darwin 13x8 ***
Turn = 0.
  01234567
0 .......r
1 .f......
2 .......h
3 ........
4 tt......
5 .......t
6 ........
7 ........
8 .f......
9 ........
0 .......r
1 ........
2 ........

Turn = 129.
  01234567
0 ...r.r.r
1 ........
2 ........
3 ........
4 ........
5 r.......
6 ........
7 r.......
8 ........
9 ........
0 ........
1 ........
2 ..r.r.r.

Turn = 258.
  01234567
0 ....rr..
1 .....r.r
2 ........
3 ........
4 ........
5 ........
6 ........
7 .....rr.
8 ........
9 ..r.....
0 ........
1 ........
2 r.......

Turn = 387.
  01234567
0 ...rr...
1 ........
2 ........
3 ........
4 ........
5 r.......
6 .......r
7 r.......
8 ........
9 ........
0 ........
1 .r......
2 ..r....r

Turn = 516.
  01234567
0 .r.....r
1 ........
2 ......r.
3 ..r.....
4 ...r....
5 .....r..
6 ......r.
7 ........
8 ........
9 ........
0 ........
1 .......r
2 ........

Turn = 645.
  01234567
0 ........
1 ........
2 .......r
3 ........
4 ..r.....
5 r.......
6 ........
7 ........
8 ........
9 r.......
0 .......r
1 r.......
2 r....r..

Turn = 774.
  01234567
0 .rr...r.
1 ........
2 ........
3 ........
4 r.......
5 ........
6 ........
7 ........
8 ........
9 ........
0 rr......
1 ........
2 r......r

Turn = 903.
  01234567
0 r.......
1 r.......
2 r.......
3 .r......
4 r.......
5 ........
6 ........
7 ........
8 ........
9 ........
0 ........
1 ........
2 r.....rr

Turn = 1032.
  01234567
0 ....r...
1 .......r
2 ....r...
3 .....r..
4 ........
5 .r......
6 ........
7 ........
8 r.......
9 r.......
0 ........
1 ........
2 ...r....

Turn = 1161.
  01234567
0 .......r
1 ....r..r
2 .....r.r
3 ........
4 .r......
5 ........
6 ........
7 r.......
8 ........
9 ........
0 ........
1 ........
2 r.......

*** Darwin 15x18 ***
Turn = 0.
  012345678901234567
0 ..r..h............
1 ..................
2 .........h........
3 ..................
4 ..................
5 ..f...............
6 ..................
7 .....t............
8 .....rf...........
9 .....h............
0 ...t.t............
1 ............h.....
2 r......t.....f....
3 ..................
4 .....h............

Turn = 191.
  012345678901234567
0 ......r.r.........
1 ....r.............
2 ...r..............
3 ..................
4 ...r..............
5 ..r...............
6 ..................
7 ..................
8 ..................
9 .....t...........r
0 .................r
1 ...............r..
2 ..................
3 ..................
4 rr...r.r......r...

Turn = 382.
  012345678901234567
0 ...rr....r.......r
1 ..........r.r.r...
2 ..r.r.........r...
3 ..................
4 r.................
5 ..................
6 ..r...............
7 ..................
8 ..................
9 ..................
0 ..................
1 ..................
2 ..................
3 .r................
4 .r..r.............

Turn = 573.
  012345678901234567
0 r....r.r...r......
1 ......r......r....
2 .......r..........
3 ..................
4 ..................
5 ..................
6 ..................
7 .........r........
8 ..................
9 r.................
0 r.....r...........
1 .......r..........
2 ..................
3 .....r............
4 ............r..r..

*** Darwin 13x13 ***
Turn = 0.
  0123456789012
0 ..f..........
1 ..f.r........
2 .............
3 .............
4 ..........f..
5 .....fh......
6 .............
7 .............
8 .............
9 .............
0 ......rt.....
1 .............
2 .............

Turn = 105.
  0123456789012
0 .....r.rr....
1 .............
2 ........r....
3 .............
4 .............
5 .............
6 ............r
7 .............
8 .............
9 .............
0 .............
1 .............
2 r...r.r......

Turn = 210.
  0123456789012
0 ..........r..
1 ...........r.
2 .............
3 .............
4 .............
5 .............
6 .......r....r
7 ........r....
8 .............
9 r............
0 .............
1 .............
2 ...r......r..

Turn = 315.
  0123456789012
0 .........r..r
1 .............
2 .............
3 ...........r.
4 .............
5 .............
6 .............
7 .............
8 .............
9 .............
0 .........r.rr
1 ............r
2 ....r........

Turn = 420.
  0123456789012
0 rr...........
1 .r...........
2 .............
3 ............r
4 r............
5 .............
6 ............r
7 .............
8 .............
9 .............
0 ............r
1 ............r
2 .............

Turn = 525.
  0123456789012
0 ....r......r.
1 ...........r.
2 ............r
3 ............r
4 .............
5 .............
6 .............
7 r............
8 ............r
9 .............
0 .............
1 .............
2 .r...........

Turn = 630.
  0123456789012
0 .......r...r.
1 .............
2 .............
3 .............
4 .............
5 ............r
6 .............
7 r............
8 r............
9 .............
0 .............
1 .............
2 .rrr.........

Turn = 735.
  0123456789012
0 .............
1 .............
2 .............
3 r............
4 ............r
5 .............
6 .............
7 .............
8 .............
9 .............
0 .............
1 .rr..........
2 r.r...r.....r

Turn = 840.
  0123456789012
0 ....r..r.....
1 .......r.....
2 .............
3 .............
4 .............
5 .............
6 .............
7 .............
8 ..........r..
9 r............
0 .......r.....
1 .............
2 .....r......r

Turn = 945.
  0123456789012
0 ..r..........
1 .............
2 .....r.......
3 .............
4 .............
5 .............
6 .............
7 .............
8 r............
9 rr.........rr
0 .............
1 .............
2 r............

Turn = 1050.
  0123456789012
0 ............r
1 ..........rr.
2 .............
3 .............
4 ............r
5 .............
6 .............
7 .............
8 .............
9 r............
0 .............
1 .r...........
2 rr...........

*** Darwin 11x1 ***
Turn = 0.
  0
0 r
1 .
2 .
3 .
4 .
5 .
6 f
7 .
8 .
9 .
0 .

Turn = 170.
  0
0 .
1 .
2 .
3 .
4 .
5 .
6 .
7 .
8 r
9 .
0 r

Turn = 340.
  0
0 r
1 r
2 .
3 .
4 .
5 .
6 .
7 .
8 .
9 .
0 .

Turn = 510.
  0
0 r
1 r
2 .
3 .
4 .
5 .
6 .
7 .
8 .
9 .
0 .

Turn = 680.
  0
0 .
1 .
2 r
3 r
4 .
5 .
6 .
7 .
8 .
9 .
0 .

Turn = 850.
  0
0 r
1 r
2 .
3 .
4 .
5 .
6 .
7 .
8 .
9 .
0 .

*** Darwin 5x20 ***
Turn = 0.
  01234567890123456789
0 .............ht.....
1 .......r..tt......f.
2 .........f..........
3 ..........f.........
4 .........f.........h

Turn = 4.
  01234567890123456789
0 .........r...tt.....
1 ..........tt......f.
2 .........f..........
3 ..........f.........
4 .........f.........h

Turn = 8.
  01234567890123456789
0 ............rtt.....
1 ..........tt......f.
2 .........f..........
3 ..........f.........
4 .........f.........h

Turn = 12.
  01234567890123456789
0 ............rrr.....
1 ..........tt......f.
2 .........f..........
3 ..........f.........
4 .........f.........h

Turn = 16.
  01234567890123456789
0 ............t...r...
1 ..........ttt.....f.
2 .........f..........
3 ..........f.........
4 .........f.........h

Turn = 20.
  01234567890123456789
0 ............t......r
1 ..........ttt.....f.
2 .........f..........
3 ..........f.........
4 .........f.........h

Turn = 24.
  01234567890123456789
0 ............t.......
1 ..........ttt.....f.
2 .........f..........
3 ..........f........r
4 .........f.........r

Turn = 28.
  01234567890123456789
0 ............t.......
1 ..........ttt.....fr
2 .........f..........
3 ..........f.........
4 .........f.....r....

Turn = 32.
  01234567890123456789
0 ............t....r..
1 ..........ttt.....f.
2 .........f..........
3 ..........f.........
4 .........f.r........

Turn = 36.
  01234567890123456789
0 ............tr......
1 ..........ttt.....f.
2 .........r..........
3 .........rf.........
4 ........r...........

Turn = 40.
  01234567890123456789
0 ........r...tt......
1 .........tttt.....f.
2 ....................
3 ..........f.........
4 ....r...............

Turn = 44.
  01234567890123456789
0 ....r.......tt......
1 .........tttt.....f.
2 ....................
3 ..........f.........
4 r...................

Turn = 48.
  01234567890123456789
0 r...........tt......
1 r........tttt.....f.
2 ....................
3 ..........f.........
4 ....................

Turn = 52.
  01234567890123456789
0 ............tt......
1 r..r.....tttt.....f.
2 ....................
3 ..........f.........
4 ....................

Turn = 56.
  01234567890123456789
0 ............tt......
1 .......r.tttt.....f.
2 ....................
3 ..........f.........
4 r...................

Turn = 60.
  01234567890123456789
0 ........r...tt......
1 ...........rr.....f.
2 .........r..........
3 ..........f.........
4 ....r......r........

Turn = 64.
  01234567890123456789
0 ..........r.tt......
1 ...........r......f.
2 ....................
3 ..........f.........
4 ........rr.r..r.....

Turn = 68.
  01234567890123456789
0 .........r..tt......
1 ........r.........f.
2 ..........r.........
3 ...........r........
4 ........r..r......r.

Turn = 72.
  01234567890123456789
0 ..........rrtt......
1 ..................f.
2 ......r............r
3 ...............r....
4 ....r..r............

Turn = 76.
  01234567890123456789
0 ............rt....r.
1 ..........r.......f.
2 ..r.........r.......
3 ...................r
4 r..r................

Turn = 80.
  01234567890123456789
0 ..............r.....
1 ...............rr.f.
2 ....................
3 rr..................
4 r.........rr......r.

Turn = 84.
  01234567890123456789
0 .r...............r..
1 ...........r......f.
2 ....................
3 ...r............rr..
4 ....r...r......r....

Turn = 88.
  01234567890123456789
0 .............r..r..r
1 ..................f.
2 r...................
3 ......rr............
4 ......r....r.......r

Turn = 92.
  01234567890123456789
0 ......r........rr...
1 ..................f.
2 ...............r....
3 ...........r........
4 .rr....r..........r.

Turn = 96.
  01234567890123456789
0 ..r..........r......
1 .rr...............f.
2 ....................
3 ...............rr...
4 ...r...........rr...

Turn = 100.
  01234567890123456789
0 r...r....r.....r....
1 r...............r.f.
2 ....................
3 ...................r
4 r...............r...

Turn = 104.
  01234567890123456789
0 r...r..r....r.....r.
1 ......r...........f.
2 ....................
3 ...................r
4 r.................r.

Turn = 108.
  01234567890123456789
0 r..r....r.r.......r.
1 .........r........fr
2 ....................
3 ....................
4 ......r.......r.....

Turn = 112.
  01234567890123456789
0 .r.....r..r...r.....
1 ..................f.
2 ....................
3 ..........r.........
4 ..r......rr........r

Turn = 116.
  01234567890123456789
0 .....r.....rr.r.....
1 ..................fr
2 ....................
3 .............r......
4 r....rr.............

Turn = 120.
  01234567890123456789
0 .........r......rrr.
1 ..................f.
2 ....................
3 ...rr......r.....r..
4 ..r.................

Turn = 124.
  01234567890123456789
0 ...rr........r....rr
1 ....................
2 ...................r
3 ..................r.
4 ......r..r.......r..

Turn = 128.
  01234567890123456789
0 rr...............r.r
1 ..................rr
2 ........r........r..
3 ....................
4 ......r............r

Turn = 132.
  01234567890123456789
0 ...r...r.........rr.
1 ...............r....
2 ..................r.
3 .................r..
4 .rr.............r...

Turn = 136.
  01234567890123456789
0 .....rr.......rr....
1 ..r........r........
2 ....................
3 .............r......
4 r...........r......r

Turn = 140.
  01234567890123456789
0 ..r.......rr........
1 ...r...r............
2 ....................
3 .........r..........
4 ....r.r.r........r..

Turn = 144.
  01234567890123456789
0 ......rrr...........
1 ...r................
2 .......r............
3 .....r..............
4 ...r.r.r.....r......

Turn = 148.
  01234567890123456789
0 ....r...............
1 r........r..........
2 ....r...............
3 .r..................
4 r.r.....r.rr........

Turn = 152.
  01234567890123456789
0 r...................
1 r............r......
2 rr..................
3 r...................
4 ..r..r.......r.r....

Turn = 156.
  01234567890123456789
0 rr..................
1 .r...............r..
2 ...r................
3 r...................
4 .r...r...........r.r

Turn = 160.
  01234567890123456789
0 ..r.r..............r
1 .r.................r
2 ..................r.
3 r...................
4 ..r..r...r..........

Turn = 164.
  01234567890123456789
0 ........r.........rr
1 r...................
2 ....................
3 r..................r
4 ..r...r..r...r......

Turn = 168.
  01234567890123456789
0 ............r...r...
1 ....................
2 ....................
3 r.................r.
4 r.....r...r..r...rr.

Turn = 172.
  01234567890123456789
0 ..............r.....
1 .................r..
2 ...............r....
3 ...r..........r....r
4 ....r.....r...r..r..

Turn = 176.
  01234567890123456789
0 ..........r.......rr
1 ....................
2 ....................
3 .......r..r..r.....r
4 ........r.....r...r.

Turn = 180.
  01234567890123456789
0 ......r........r...r
1 ....................
2 ...................r
3 .........r..........
4 ........rr..r....rr.

Turn = 184.
  01234567890123456789
0 ..r........r...r.rr.
1 ....................
2 ....................
3 .....r..............
4 ....rr..........r..r

Turn = 188.
  01234567890123456789
0 r......r...r.......r
1 ...................r
2 .................r..
3 .r..................
4 rr.................r

Turn = 192.
  01234567890123456789
0 ...rr..r........r...
1 .r.................r
2 ..................r.
3 .r..................
4 r.................r.

Turn = 196.
  01234567890123456789
0 rrrr........r....r..
1 ....................
2 ..............r.....
3 .....r..............
4 ..r...............r.

Turn = 200.
  01234567890123456789
0 .r......r....r......
1 r...................
2 ..........r.........
3 .........r..........
4 r.r...r.......r.....

Turn = 204.
  01234567890123456789
0 ....r....r..........
1 ....................
2 r.....r.............
3 .............r......
4 r..r.r....rr........

Turn = 208.
  01234567890123456789
0 r....r.....r........
1 ..........r.........
2 ..r.................
3 ..r..............r..
4 ..r....r.r..........

Turn = 212.
  01234567890123456789
0 .r........r.........
1 rr........r.........
2 ...................r
3 ......r.............
4 ......r....r.r......

Turn = 216.
  01234567890123456789
0 .r....r............r
1 .....r..............
2 ....................
3 r.........r.........
4 .........rr....r.r..

Turn = 220.
  01234567890123456789
0 ...r................
1 ....r....r..........
2 ....................
3 r.............r....r
4 ......r.......r...rr

Turn = 224.
  01234567890123456789
0 r.................r.
1 r............r......
2 ....................
3 .....r..........rrr.
4 ..r................r

Turn = 228.
  01234567890123456789
0 ...r...........r.r..
1 .................r.r
2 ...............r....
3 .r.......r..........
4 r..................r

Turn = 232.
  01234567890123456789
0 .......r...r.....r.r
1 ....................
2 ..................rr
3 .....r.......r......
4 ....r.........r.....

Turn = 236.
  01234567890123456789
0 ...........r.r..r..r
1 .........r..........
2 ....................
3 .........r.......r..
4 ........r.r......r..

Turn = 240.
  01234567890123456789
0 ............rr......
1 ....................
2 ...................r
3 ..........r.rr.....r
4 ........r.r..r......

Turn = 244.
  01234567890123456789
0 .........r..r.......
1 ....................
2 ..................rr
3 ................r...
4 ....r.r..r..rr......

Turn = 248.
  01234567890123456789
0 .....r..r..........r
1 ....................
2 ..............r.....
3 ...................r
4 r.r..r...r......r...

Turn = 252.
  01234567890123456789
0 .r..r...............
1 r................r.r
2 ..........r.........
3 r...................
4 .r...r.............r

Turn = 256.
  01234567890123456789
0 rr...............r.r
1 r..r.........r......
2 r.....r.............
3 ....................
4 .r..................

Turn = 260.
  01234567890123456789
0 r...r........r..r...
1 r......r.r..........
2 r.rr................
3 ....................
4 ....................

Turn = 264.
  01234567890123456789
0 .rrr...rrr..r.......
1 ....................
2 ...r................
3 r...................
4 .........r..........

Turn = 268.
  01234567890123456789
0 r.....rrrr..........
1 ....................
2 .......r............
3 .r.....r............
4 ..r...r.............

Turn = 272.
  01234567890123456789
0 ....r...r...........
1 ..........r.........
2 .......r............
3 ...rr...............
4 r..r..r..r..........

Turn = 276.
  01234567890123456789
0 r...r......r........
1 ..............r.....
2 ....................
3 r....r..............
4 ...r...r..r.r.......

Turn = 280.
  01234567890123456789
0 r..............r....
1 r.................r.
2 ..r.................
3 .r..................
4 .......r...r..r.r...

Turn = 284.
  01234567890123456789
0 ...................r
1 r...................
2 ......r.............
3 r..................r
4 r..........r...r..rr

Turn = 288.
  01234567890123456789
0 ...................r
1 r...................
2 ..r.......r.........
3 ................rrr.
4 ....r..........r...r

Turn = 292.
  01234567890123456789
0 r..............r.rr.
1 ....................
2 ......r.......r.....
3 ............r.......
4 ........r.........rr

Turn = 296.
  01234567890123456789
0 ....r......r.......r
1 ....................
2 ..........r.........
3 ........r.......rrr.
4 ............r..r....

Turn = 300.
  01234567890123456789
0 .......rr...........
1 ....................
2 ..............r....r
3 ....r...............
4 ............r.rr.rr.

Turn = 304.
  01234567890123456789
0 ........r..r..r.....
1 ....................
2 ................rrr.
3 r...................
4 ........r.....r....r

Turn = 308.
  01234567890123456789
0 r...........r.rrrr..
1 ....................
2 ..................r.
3 .................r..
4 ....r.....r.........

Turn = 312.
  01234567890123456789
0 .r..............r..r
1 ................r...
2 ...............r....
3 ................r...
4 r.....r.......rr....

Turn = 316.
  01234567890123456789
0 .....r............r.
1 ..................r.
2 ...........r..rr...r
3 r...................
4 ..r...............r.

Turn = 320.
  01234567890123456789
0 r........r....rr....
1 ..............r.r...
2 .......r...........r
3 ....................
4 r.................r.

Turn = 324.
  01234567890123456789
0 ....r.......rr.....r
1 ..........r.........
2 ...r................
3 ...............r.r..
4 ....r.........r.....

Turn = 328.
  01234567890123456789
0 ........r......rr...
1 ......r.............
2 r...........r......r
3 ...........r........
4 ........r.r.........

Turn = 332.
  01234567890123456789
0 r...........r.....rr
1 ..r.................
2 .........r..........
3 .......r.......r....
4 ........r....r......

Turn = 336.
  01234567890123456789
0 r.......r.......rr..
1 ....................
2 ....................
3 ...r..............r.
4 r...r..........r.r..

Turn = 340.
  01234567890123456789
0 ...rr...........r...
1 ....................
2 ................rr..
3 r...................
4 rr.............r...r

Turn = 344.
  01234567890123456789
0 .r....r..........r.r
1 ....................
2 ....................
3 .r.r................
4 r..........r....r.r.

Turn = 348.
  01234567890123456789
0 ....r.....r.........
1 ....................
2 r.................rr
3 .....r..............
4 .....r.r....r.....r.

Turn = 352.
  01234567890123456789
0 .r......r.....r.....
1 ....................
2 ......r.............
3 .........r..........
4 .....r..r.....r...rr

Turn = 356.
  01234567890123456789
0 .....r.r....r.....rr
1 ....................
2 ....................
3 .............r.....r
4 .r..r.....r.........

Turn = 360.
  01234567890123456789
0 .........r.r....r..r
1 ..................r.
2 r...................
3 .................rr.
4 r.....r.............

Turn = 364.
  01234567890123456789
0 r............r.r.r..
1 ..............r...r.
2 ...................r
3 ....................
4 ..rr...............r

Turn = 368.
  01234567890123456789
0 ...............r...r
1 ..r.......r....r....
2 r..................r
3 ....................
4 ......r...........rr

Turn = 372.
  01234567890123456789
0 r..........r.......r
1 ......r..........r..
2 ...................r
3 ....................
4 r.........r....rr...

Turn = 376.
  01234567890123456789
0 .......r........r.r.
1 ..r..........r......
2 r...................
3 r..............r....
4 ..............r...r.

Turn = 380.
  01234567890123456789
0 r..r........r.r.....
1 .........r....r.....
2 ..r.................
3 ....r...............
4 ..................rr

Turn = 384.
  01234567890123456789
0 .rr.....r.r.........
1 .....r....r.........
2 ......r............r
3 ........r...........
4 ................r...

Turn = 388.
  01234567890123456789
0 r...r.r...........r.
1 .r....r.............
2 ..........r.........
3 ............r.......
4 ..r.........r.......

Turn = 392.
  01234567890123456789
0 r.rr..........r.....
1 ..r.................
2 ..............r.....
3 ................r...
4 r....r..r...........

Turn = 396.
  01234567890123456789
0 r.....r...r.........
1 ....................
2 rr....rr..........r.
3 ...................r
4 ...r................

Turn = 400.
  01234567890123456789
0 ..r..r.r...........r
1 ........r...........
2 .........r..........
3 ....................
4 rr.....r.........r..

Turn = 404.
  01234567890123456789
0 ...................r
1 ....................
2 ...rr...............
3 .......r............
4 .r..r..rrr...r......

Turn = 408.
  01234567890123456789
0 .........r..........
1 ....................
2 ....................
3 ...r..r.............
4 .r.r.rrr.r.........r

Turn = 412.
  01234567890123456789
0 ...r..rr............
1 .......r............
2 ....................
3 r...................
4 .r.rrr..........r...

Turn = 416.
  01234567890123456789
0 r.........r.........
1 .....r....r.........
2 ....................
3 ......r.............
4 .rrr..r.....r.......

Turn = 420.
  01234567890123456789
0 .rrr..........r.....
1 ..............r.....
2 ....................
3 r..r................
4 .......r.rr.........

Turn = 424.
  01234567890123456789
0 .........r........r.
1 r.................r.
2 ..r.................
3 r..r................
4 r..........r..r.....

Turn = 428.
  01234567890123456789
0 ............r......r
1 ...................r
2 ....................
3 r...................
4 rrr..r.........r..r.

Turn = 432.
  01234567890123456789
0 ..r.............r..r
1 r...................
2 ...................r
3 r..r...............r
4 .........r.........r

Turn = 436.
  01234567890123456789
0 r.r..r.............r
1 ..................rr
2 ...................r
3 .......r.......r....
4 .............r......

Turn = 440.
  01234567890123456789
0 ....r.r..r......r..r
1 ....................
2 .................r..
3 ...........rr.......
4 .................rr.

Turn = 444.
  01234567890123456789
0 ........r.r.rr.r....
1 ...........r.....r..
2 .............r.....r
3 ....................
4 ............r.......

Turn = 448.
  01234567890123456789
0 .............r.rr.r.
1 .......r..r.........
2 .........r.rr.......
3 ....................
4 ................r...

Turn = 452.
  01234567890123456789
0 ..............r.....
1 ...r................
2 .....r..............
3 ...............r....
4 ..........rrrr..r..r

Turn = 456.
  01234567890123456789
0 ..........r.........
1 r...................
2 .r..............r..r
3 ..............rr....
4 ......r.rr..........

Turn = 460.
  01234567890123456789
0 ......r.......rr.r.r
1 ....................
2 ....................
3 ....................
4 rrr.rr..............

Turn = 464.
  01234567890123456789
0 ..r.......r.......rr
1 r.r.................
2 ....................
3 ....................
4 rrr................r

Turn = 468.
  01234567890123456789
0 rrr...r..........r..
1 r.r.................
2 ....................
3 r...................
4 ..................rr

Turn = 472.
  01234567890123456789
0 r.rr.........r.....r
1 r...................
2 ....................
3 rrr................r
4 ....................

Turn = 476.
  01234567890123456789
0 r.r......r......r..r
1 ....................
2 ....................
3 rrr.................
4 .rr.................

Turn = 480.
  01234567890123456789
0 r.r..rr.....r.......
1 ...................r
2 rr..................
3 ....................
4 rr..................

Turn = 484.
  01234567890123456789
0 r.r...r.rr..........
1 r.r.................
2 r...................
3 ....................
4 .....r.............r

Turn = 488.
  01234567890123456789
0 ......rr.r..........
1 r.r...r.............
2 ..r.................
3 ....................
4 ..r......r.....r....

Turn = 492.
  01234567890123456789
0 ....r........r......
1 ......r.r...........
2 ......r.............
3 rr..................
4 .......r...rr.......

Turn = 496.
  01234567890123456789
0 rr...............r..
1 ..........r.r.......
2 ..........r.........
3 .....r..............
4 .........rr....r....

Turn = 500.
  01234567890123456789
0 r........r..........
1 ..............r.r..r
2 ..............r.....
3 .........r..........
4 .r....r............r

Turn = 504.
  01234567890123456789
0 ....r.r.............
1 ..................rr
2 ..................r.
3 r............r....r.
4 ..r................r

Turn = 508.
  01234567890123456789
0 r...r.r............r
1 ....................
2 ..................r.
3 ..................r.
4 r..............rr.r.

Turn = 512.
  01234567890123456789
0 r.........r....r....
1 ....................
2 ..............r.....
3 r.............r.....
4 r.............r..rr.

Turn = 516.
  01234567890123456789
0 r............r......
1 ............r.......
2 ..........r.......r.
3 ...r......r......r..
4 ....r.....r.........

Turn = 520.
  01234567890123456789
0 ....r...........rr.r
1 ....................
2 ......r.............
3 ......rr............
4 .......rr...r.......

Turn = 524.
  01234567890123456789
0 ......r.r...........
1 ........r...........
2 ..r.....r.......r...
3 .................r.r
4 ....r...........r...

Turn = 528.
  01234567890123456789
0 ..r.........r.......
1 ............r.......
2 ............r.......
3 r.............r....r
4 r.............rr....

Turn = 532.
  01234567890123456789
0 r...............r..r
1 r...............r...
2 ................r...
3 ...r......r.........
4 ..........rr........

Turn = 536.
  01234567890123456789
0 ..r.r............r..
1 ...................r
2 .................r.r
3 ......rr............
4 ......rr............

Turn = 540.
  01234567890123456789
0 ......r.r....r.....r
1 ......r.........r...
2 ....................
3 .........r..........
4 ..rr..............r.

Turn = 544.
  01234567890123456789
0 .........rrr........
1 ..r.........r.......
2 ...................r
3 .r...........r......
4 r.................r.

Turn = 548.
  01234567890123456789
0 rr.........r...r....
1 ....................
2 .........r..........
3 ..........r......r..
4 ....r.........r...r.

Turn = 552.
  01234567890123456789
0 ...r...........r...r
1 ....................
2 r...................
3 ....................
4 ........r.rrr.r....r

Turn = 556.
  01234567890123456789
0 .......r...........r
1 ....................
2 .........r...r......
3 ............r......r
4 .r......r..r....r...

Turn = 560.
  01234567890123456789
0 ...........rr.r.....
1 .......r...r........
2 ....................
3 ...................r
4 ....rr......r....r..

Turn = 564.
  01234567890123456789
0 .....r...r......r.r.
1 ...r...........r....
2 ...r................
3 ...................r
4 ........r....r......

Turn = 568.
  01234567890123456789
0 ..................rr
1 r.....rr..........rr
2 r...................
3 ....................
4 ....r....r..........

Turn = 572.
  01234567890123456789
0 ..................rr
1 ...r...............r
2 ...r................
3 ......r.............
4 r.....rr..........r.

Turn = 576.
  01234567890123456789
0 ...................r
1 .......r..........r.
2 .......r............
3 ..r................r
4 ..rrr..............r

Turn = 580.
  01234567890123456789
0 ...................r
1 ..r........r......r.
2 r..........r........
3 ....................
4 r......r..........rr

Turn = 584.
  01234567890123456789
0 r...r...............
1 r.............rr..r.
2 ...............r....
3 ....................
4 ...........r....r..r

Turn = 588.
  01234567890123456789
0 r.......r.....r....r
1 ...r...........r....
2 ...................r
3 ...................r
4 .............rr.....

Turn = 592.
  01234567890123456789
0 ............r.....r.
1 .......r............
2 ...................r
3 ...............r....
4 r........rr....r...r

Turn = 596.
  01234567890123456789
0 ................r.r.
1 ...........r........
2 ....................
3 ...........r.......r
4 ...r.rr....r.......r

Turn = 600.
  01234567890123456789
0 .................rr.
1 ...............r...r
2 ....................
3 ......rr.......r....
4 ....rr.r............

Turn = 604.
  01234567890123456789
0 ....r.r.......r.....
1 ...................r
2 ......r.............
3 ...r.......r....r...
4 .........r.......r..

Turn = 608.
  01234567890123456789
0 .rr..r....r.........
1 ....................
2 .................r..
3 r......r............
4 .............rr....r

Turn = 612.
  01234567890123456789
0 rrr...r...........r.
1 r............rr.....
2 ....................
3 ...r...............r
4 ....................

Turn = 616.
  01234567890123456789
0 r.r.r.............r.
1 ..rr.........rr....r
2 ....................
3 r...................
4 ....................

Turn = 620.
  01234567890123456789
0 r...r.........r....r
1 ....................
2 r...................
3 ....r...............
4 ..rr.........rr.....

Turn = 624.
  01234567890123456789
0 ........r.r.........
1 ..r.................
2 ....................
3 r..r...............r
4 r...r..........r..r.

Turn = 628.
  01234567890123456789
0 ....r...r...r.......
1 r...r...............
2 ....................
3 .................rr.
4 ...r....r..........r

Turn = 632.
  01234567890123456789
0 ..r...r.........rrr.
1 ....................
2 ......rr............
3 ....................
4 .......r....r......r

Turn = 636.
  01234567890123456789
0 ......r........r....
1 ....r..............r
2 ...................r
3 ................r...
4 .....r..r..r....r...

Turn = 640.
  01234567890123456789
0 ..........rr........
1 ....................
2 ...............r....
3 .............r.....r
4 .r..r.......r..r...r

Turn = 644.
  01234567890123456789
0 ........r..........r
1 ....................
2 r..........r........
3 .........r.r...r....
4 ........r.......r..r

Turn = 648.
  01234567890123456789
0 .r..r...............
1 ...................r
2 .......r...........r
3 .....r.....r........
4 ..........r..r.....r

Turn = 652.
  01234567890123456789
0 .r..................
1 ...............r....
2 ...rr..........r....
3 .r.....r............
4 ..............r.rr..

Turn = 656.
  01234567890123456789
0 .................r..
1 r..........r........
2 r..........r...r....
3 ...r................
4 ..r..r.............r

Turn = 660.
  01234567890123456789
0 ...............r....
1 ....r..r........r..r
2 .......r............
3 r...................
4 rr.......r..........

Turn = 664.
  01234567890123456789
0 r....rr..........rr.
1 r...................
2 ...r................
3 ....................
4 ....r........r..r...

Turn = 668.
  01234567890123456789
0 .r........r...rr....
1 r..r................
2 r...................
3 ....................
4 ........r........r.r

Turn = 672.
  01234567890123456789
0 r...........r.......
1 .......r....r.......
2 ...r..........r.....
3 r...................
4 ............r.....rr

Turn = 676.
  01234567890123456789
0 ........r.........r.
1 ...........r........
2 .......r...........r
3 ....................
4 r.r.........rr.r....

Turn = 680.
  01234567890123456789
0 ....r........r.r..r.
1 ...............r....
2 ...........r........
3 ....................
4 ...r..r.r..........r

Turn = 684.
  01234567890123456789
0 r.........rr..r.....
1 ........r..........r
2 ...............r....
3 ....................
4 ......r.r..........r

Turn = 688.
  01234567890123456789
0 ......r..rrr......r.
1 ....................
2 ...................r
3 r...................
4 ...r........r....r..

Turn = 692.
  01234567890123456789
0 ..r...........rr....
1 ....................
2 ....................
3 ....................
4 rr.......rr...rr...r

Turn = 696.
  01234567890123456789
0 r.................r.
1 rr..................
2 ..............r.....
3 .............r......
4 ......rr.....r.r....

Turn = 700.
  01234567890123456789
0 r..r...............r
1 .r..................
2 ..................r.
3 .........r..........
4 ..rr.....r.r........

Turn = 704.
  01234567890123456789
0 .......r............
1 .....r...........r..
2 ....................
3 r....r..............
4 rr...r.r...........r

Turn = 708.
  01234567890123456789
0 ...........r........
1 .r.......r...r......
2 ....................
3 rr..................
4 rr.r...............r

Turn = 712.
  01234567890123456789
0 r..r...........r....
1 r...................
2 ..r........r.......r
3 r...........r.......
4 .r..................

Turn = 716.
  01234567890123456789
0 .r.r...r..........rr
1 r...................
2 ....................
3 r...........r.......
4 .....r....r.........

Turn = 720.
  01234567890123456789
0 ....r..r...rr....rr.
1 r...................
2 ....................
3 ........r...........
4 ..r....r............

Turn = 724.
  01234567890123456789
0 .......rr..r.r.rr...
1 ..............r.....
2 ....................
3 ....................
4 r...rr..............

Turn = 728.
  01234567890123456789
0 ....r........r....r.
1 r............r......
2 ....................
3 ........r......r....
4 rr............r.....

Turn = 732.
  01234567890123456789
0 .r.......r........r.
1 r.r.................
2 ....................
3 ....................
4 ...r..r...r..rr.....

Turn = 736.
  01234567890123456789
0 .....r........r.....
1 r.............r.....
2 ....r...............
3 ....................
4 .rr...rr.r..........

Turn = 740.
  01234567890123456789
0 .r...r.r..r.........
1 ......r...r.........
2 ....................
3 rr..................
4 .....rr.............

Turn = 744.
  01234567890123456789
0 r....rr.r...........
1 r..r..r.............
2 ......r.............
3 .....r..............
4 .........r..........

Turn = 748.
  01234567890123456789
0 ..r.........r.......
1 ..r.................
2 rr..................
3 ......r.............
4 r...r..r.....r......

Turn = 752.
  01234567890123456789
0 r...............r...
1 ....................
2 r..r................
3 r.r.................
4 .r......r..r.....r..

Turn = 756.
  01234567890123456789
0 r.rr...............r
1 .r..................
2 ....................
3 ...................r
4 r....r......r..r....

Turn = 760.
  01234567890123456789
0 rrr.............r..r
1 r...................
2 ....................
3 ....................
4 ....r....r......r..r

Turn = 764.
  01234567890123456789
0 rr..........r..r....
1 r..................r
2 ....................
3 ....................
4 .r......r....r.....r

Turn = 768.
  01234567890123456789
0 ..r.....r..r.......r
1 ...................r
2 r...................
3 ....................
4 r...r.......r....r..

Turn = 772.
  01234567890123456789
0 .....r.r.......r....
1 ......r........r....
2 ....................
3 ..r................r
4 r.......r.......r...

Turn = 776.
  01234567890123456789
0 ..rr.......r.......r
1 ...........r........
2 ....................
3 ......r.............
4 ....r.r.....r......r

Turn = 780.
  01234567890123456789
0 .......r.......r...r
1 rr.....r............
2 .....r..............
3 ..........r.........
4 ........r.......r...

Turn = 784.
  01234567890123456789
0 ...r..r....r.......r
1 ...r................
2 ....................
3 ..............r.....
4 rr..........r......r

Turn = 788.
  01234567890123456789
0 r.......r...........
1 r........r..........
2 r.................r.
3 .................rr.
4 .....r..........r...

Turn = 792.
  01234567890123456789
0 .r..r...............
1 ...r................
2 ....r.........r..r..
3 ..............r.....
4 ........rr.........r

Turn = 796.
  01234567890123456789
0 .r................r.
1 .......r............
2 ...r....r.r.........
3 ..........r.........
4 ...........r.r..r...

Turn = 800.
  01234567890123456789
0 ..........r.........
1 ....................
2 r........r....rr...r
3 ......r......r......
4 ....r....r..........

Turn = 804.
  01234567890123456789
0 ......r......rrr....
1 ....................
2 ....................
3 ..r........r........
4 .r......r...r......r

Turn = 808.
  01234567890123456789
0 ..r........rr.......
1 ....................
2 r..................r
3 .............r.r....
4 .....r......r...r...

Turn = 812.
  01234567890123456789
0 r......rr.........r.
1 r...................
2 ....................
3 ...................r
4 .........rrr.......r

Turn = 816.
  01234567890123456789
0 r..rr.........r....r
1 ....r....rrr........
2 ....................
3 ....................
4 ...................r

Turn = 820.
  01234567890123456789
0 .rrr...rr..rr......r
1 ........r..........r
2 ....................
3 ....................
4 ....................

Turn = 824.
  01234567890123456789
0 ..rrrr.......r..rr.r
1 ............r.......
2 ....................
3 ....................
4 ..r.................

Turn = 828.
  01234567890123456789
0 r.r..............r.r
1 ................r.r.
2 ....................
3 ....r...........r...
4 ...r.r..............

Turn = 832.
  01234567890123456789
0 ..r................r
1 ...................r
2 ....................
3 ..r.....r...........
4 r........r.......rrr

Turn = 836.
  01234567890123456789
0 ......r........r.r..
1 ....................
2 ....................
3 ............r......r
4 ..r.r........rr...r.

Turn = 840.
  01234567890123456789
0 ..........rr.......r
1 ...................r
2 ....................
3 .............r..r...
4 ......r.r......rr...

Turn = 844.
  01234567890123456789
0 ..........r.rr..r...
1 ....................
2 ....................
3 ..................r.
4 ..........r.r....rrr

Turn = 848.
  01234567890123456789
0 ......r....rr.......
1 ...................r
2 ............r.......
3 ..............r.r...
4 ..............rrr...

Turn = 852.
  01234567890123456789
0 ..r....rr......rrr..
1 ....................
2 ....................
3 ..........r...r.....
4 .............r..r...

Turn = 856.
  01234567890123456789
0 ...rr.......r.r.....
1 r...................
2 ....................
3 ......r.........rr..
4 .................r.r

Turn = 860.
  01234567890123456789
0 rr......r.........r.
1 ....................
2 ..................r.
3 ..r...........r.....
4 r.............r....r

Turn = 864.
  01234567890123456789
0 ....rr.............r
1 ...................r
2 rr................r.
3 ..........r.........
4 r.........r.........

Turn = 868.
  01234567890123456789
0 r.r.................
1 ...............r....
2 .....r........r.....
3 ......r............r
4 ....rrr.............

Turn = 872.
  01234567890123456789
0 r.r.................
1 ......r....r........
2 .........rr.........
3 ..r.r...............
4 ......r..........r..

Turn = 876.
  01234567890123456789
0 ....r.r.r...........
1 .......r............
2 r...................
3 ....................
4 r.......rrr..r......

Turn = 880.
  01234567890123456789
0 .r......r.r.r.......
1 ...r................
2 ............r.......
3 ....................
4 ...r....rrr.........

Turn = 884.
  01234567890123456789
0 .....r......r.r.r...
1 r.......r.r.........
2 ....................
3 ....................
4 .......r.rr.........

Turn = 888.
  01234567890123456789
0 .......rr.......r.rr
1 r.....r.............
2 ........r...........
3 ....................
4 .......rr...........

Turn = 892.
  01234567890123456789
0 .....r.r....r.....r.
1 ..r...............r.
2 .................r..
3 ....................
4 r..rr...............

Turn = 896.
  01234567890123456789
0 rr.r...........r....
1 ................r...
2 .rrr................
3 ....................
4 .................rr.

Turn = 900.
  01234567890123456789
0 rrr.r............r..
1 rr..................
2 ....................
3 ....................
4 ...............rr.r.

Turn = 904.
  01234567890123456789
0 r....r..r..........r
1 ................r...
2 ...............r....
3 rr..................
4 .r............r.....

Turn = 908.
  01234567890123456789
0 .........r..r...r.r.
1 ....................
2 ....................
3 ....r...............
4 r.r..r....r........r

Turn = 912.
  01234567890123456789
0 .............r..r.rr
1 ....................
2 ....................
3 .......rr...........
4 r.....r.r.......r...

Turn = 916.
  01234567890123456789
0 .......r........rrr.
1 ....................
2 ....................
3 ........r...r.......
4 ...r..r.....r......r

Turn = 920.
  01234567890123456789
0 ...r....r...........
1 ....................
2 ................rr.r
3 ................r...
4 ....r.r.r........r..

Turn = 924.
  01234567890123456789
0 r...r.......r...r.r.
1 ....................
2 ...................r
3 ...............r....
4 ......r...r........r

Turn = 928.
  01234567890123456789
0 .r.............rr...
1 ..............r.....
2 r...................
3 ...........r........
4 ..r...........r.r..r

Turn = 932.
  01234567890123456789
0 ...........r.......r
1 ...................r
2 r..............r....
3 .......r............
4 rr............r...r.

Turn = 936.
  01234567890123456789
0 .r.....r........r..r
1 ...................r
2 ...................r
3 ..rr................
4 ...r..............r.

Turn = 940.
  01234567890123456789
0 ..rrr..............r
1 ..................r.
2 ................r..r
3 ...................r
4 ..r....r............

Turn = 944.
  01234567890123456789
0 ....r..r........r..r
1 ...................r
2 ..r.........r.......
3 ....................
4 r..........r......r.

Turn = 948.
  01234567890123456789
0 ........r..rr..r....
1 ...............r....
2 ........r..........r
3 ....................
4 r..r...........r....

Turn = 952.
  01234567890123456789
0 ...........rr......r
1 r..........r.r......
2 ....r...............
3 ...........r........
4 .......r...........r

Turn = 956.
  01234567890123456789
0 r.......r.......r...
1 .......r............
2 r...................
3 ...................r
4 ...........rrr.....r

Turn = 960.
  01234567890123456789
0 ....r.......r......r
1 ...r.......r........
2 ....................
3 r................r..
4 r...............r..r

Turn = 964.
  01234567890123456789
0 r........r......rr..
1 r...................
2 ............r.....rr
3 ....................
4 r...r...............

Turn = 968.
  01234567890123456789
0 ..r..r.......r....rr
1 ....................
2 ..............r.....
3 r...................
4 ..r.....r..r........

Turn = 972.
  01234567890123456789
0 .....r...r......r...
1 ....................
2 ...r......r.........
3 r.........r.........
4 ......r.r.........r.

Turn = 976.
  01234567890123456789
0 r...........r.......
1 .......rr...........
2 ......rrr...........
3 ..............r.....
4 ..r............r....

Turn = 980.
  01234567890123456789
0 ..r....rr...........
1 ......r.............
2 ..r.r...............
3 ..................r.
4 r.......r..r........

Turn = 984.
  01234567890123456789
0 ......r.............
1 r.r................r
2 r...................
3 .......rr...........
4 ..r.r..r............

Turn = 988.
  01234567890123456789
0 r.........r........r
1 ....................
2 r.r.................
3 ....r...............
4 ...rrrr.............

Turn = 992.
  01234567890123456789
0 ....r.........r..r..
1 ......r.............
2 .....r..............
3 r.....r.............
4 rr....r.............

Turn = 996.
  01234567890123456789
0 r....rr.........r...
1 .......r............
2 ................r...
3 ..........r.........
4 r.r.......r.........

Turn = 1000.
  01234567890123456789
0 ..r.......r........r
1 r..........r........
2 .r..................
3 ..............r.....
4 ......r.......r..r..

Turn = 1004.
  01234567890123456789
0 ..............r.....
1 r..............r....
2 .....r..............
3 ..................rr
4 r.........r.......rr

Turn = 1008.
  01234567890123456789
0 ..................r.
1 ...................r
2 .........r.........r
3 .r................rr
4 r.............r...r.

Turn = 1012.
  01234567890123456789
0 r.................rr
1 ....................
2 .............r..r...
3 .....r........r.r...
4 ..................rr

Turn = 1016.
  01234567890123456789
0 .r............rrr...
1 ....................
2 .............r.....r
3 .........rr.r.......
4 ................r...

Turn = 1020.
  01234567890123456789
0 .....r...rr...r...rr
1 ..........r.........
2 .........r..........
3 ........r...........
4 ............r.......

Turn = 1024.
  01234567890123456789
0 ........rrr.........
1 ......r.............
2 .....r..............
3 ....r.....r.......r.
4 ........r..........r

Turn = 1028.
  01234567890123456789
0 .....rr.............
1 ..r.................
2 .r.................r
3 r.................r.
4 ....r....r..r.......

Turn = 1032.
  01234567890123456789
0 rrr...............rr
1 ....................
2 .r..................
3 ....................
4 rr....r.........r...

Turn = 1036.
  01234567890123456789
0 rr............r.r...
1 ....................
2 r....r..............
3 r...................
4 ..rr...............r

Turn = 1040.
  01234567890123456789
0 r.........r.r.......
1 ....................
2 .........r..........
3 ..r.r...............
4 rr..r...........r...

Turn = 1044.
  01234567890123456789
0 ..r...r.r...........
1 ....................
2 r............r......
3 ........r...........
4 r...r...r...r.......

Turn = 1048.
  01234567890123456789
0 ..r.r...............
1 r...................
2 r................r..
3 ..r.........r.......
4 ........r.r.r.......

Turn = 1052.
  01234567890123456789
0 rr..................
1 ...r...............r
2 ....................
3 ......r.........r...
4 r...........r.r.r...

Turn = 1056.
  01234567890123456789
0 .................r..
1 r......r............
2 ....................
3 ..........r........r
4 rr..............r.rr

Turn = 1060.
  01234567890123456789
0 .............r.....r
1 ...........r......r.
2 ..r.................
3 r.............r.....
4 r.................rr

Turn = 1064.
  01234567890123456789
0 .........r......rr..
1 ...............r..r.
2 ......r............r
3 ....r.............r.
4 ....r...............

Turn = 1068.
  01234567890123456789
0 .....r......rr..r..r
1 ...................r
2 ..........r........r
3 ........r...........
4 ........r...........

Turn = 1072.
  01234567890123456789
0 .r......rr..r......r
1 ....................
2 ..............rr....
3 ............r.......
4 ............r......r

Turn = 1076.
  01234567890123456789
0 .r..rr..r...........
1 ....................
2 ...................r
3 ..............rr....
4 .............r.r..r.

Turn = 1080.
  01234567890123456789
0 ...rrr........r.....
1 ....................
2 ...r.............r..
3 ...................r
4 ...............rr..r

Turn = 1084.
  01234567890123456789
0 .r......r.......r...
1 ................r...
2 ....................
3 .................r..
4 ..r.r..........rrr..

Turn = 1088.
  01234567890123456789
0 .r..........rr...r..
1 ................r...
2 ....................
3 .............r......
4 r......r...r.......r

Turn = 1092.
  01234567890123456789
0 .....r....r....r....
1 ................r..r
2 .................r..
3 .........r..........
4 ....r....r.r........

Turn = 1096.
  01234567890123456789
0 .......r..........rr
1 ........r...........
2 ....................
3 .....r..............
4 ......rr.......rrr..

Turn = 1100.
  01234567890123456789
0 ...r............rr..
1 ......r.........r..r
2 ....................
3 .r..................
4 .......rr....r......

Turn = 1104.
  01234567890123456789
0 r...r.......r.r.r...
1 r......r............
2 ....................
3 ....................
4 ..........rr.......r

Turn = 1108.
  01234567890123456789
0 rr...r..r.r.r.......
1 ....................
2 ....................
3 r...................
4 ......r........rr...

Turn = 1112.
  01234567890123456789
0 ..rrr.r.r.......r...
1 ...............r....
2 ....................
3 r...................
4 .rr.................

Turn = 1116.
  01234567890123456789
0 r.r.r........r......
1 .r..................
2 ................r...
3 ...rr...............
4 rr..................

Turn = 1120.
  01234567890123456789
0 r........r..........
1 .....r..............
2 rr..................
3 ..rr................
4 .r..r............r..

Turn = 1124.
  01234567890123456789
0 ..rr.r..............
1 .........r..........
2 r...................
3 r...................
4 rrr................r

Turn = 1128.
  01234567890123456789
0 rrr.................
1 rr...........r.....r
2 ....................
3 r...................
4 r.....r.............

Turn = 1132.
  01234567890123456789
0 .r..................
1 r..r.............r.r
2 r...................
3 .r..................
4 r.r.......r.........

Turn = 1136.
  01234567890123456789
0 .....r..............
1 r..r...r............
2 ...................r
3 ..r..r..............
4 r.............r....r

Turn = 1140.
  01234567890123456789
0 r........r..........
1 r......r...r........
2 ....................
3 ......r..r..........
4 ................rr.r

Turn = 1144.
  01234567890123456789
0 ....r........r.....r
1 ....r......r...r....
2 ....................
3 ..........r..r......
4 ............r......r

*** Darwin 19x4 ***
Turn = 0.
  0123
0 ....
1 ....
2 ....
3 ....
4 ....
5 ....
6 .f..
7 r...
8 ....
9 ....
0 ....
1 ....
2 ....
3 ....
4 ....
5 ....
6 ....
7 ....
8 ....

Turn = 166.
  0123
0 ....
1 ....
2 ....
3 ....
4 ....
5 ....
6 .f..
7 r...
8 ....
9 ....
0 ....
1 ....
2 ....
3 ....
4 ....
5 ....
6 ....
7 ....
8 ....

Turn = 332.
  0123
0 ....
1 ....
2 ....
3 ....
4 ....
5 ....
6 .f..
7 ....
8 ....
9 r...
0 ....
1 ....
2 ....
3 ....
4 ....
5 ....
6 ....
7 ....
8 ....

*** Darwin 16x10 ***
Turn = 0.
  0123456789
0 ..........
1 .f........
2 .r........
3 ..........
4 ..........
5 f..r......
6 ..........
7 ..f.......
8 ..t.......
9 ...f......
0 .........f
1 ..t.......
2 r.......f.
3 ..........
4 .........f
5 .t...f....

Turn = 31.
  0123456789
0 ......r...
1 .f........
2 .......r..
3 ..........
4 ..........
5 ........r.
6 ..........
7 ..t.......
8 ..t.......
9 ...f......
0 .........f
1 ..t.......
2 ........f.
3 ..........
4 r........f
5 .t...f....

Turn = 62.
  0123456789
0 r.........
1 .f........
2 ..........
3 ..........
4 .........r
5 ..........
6 ..........
7 ..t.......
8 ..t.......
9 rr.rr.....
0 ...r......
1 ..t.......
2 r.t.......
3 ..........
4 ..........
5 t.........

Turn = 93.
  0123456789
0 r...r.....
1 ....r.....
2 .....r....
3 .r........
4 ..........
5 .........r
6 ..........
7 ..tt......
8 ..t.......
9 ..........
0 ..........
1 ..t.......
2 ..t.......
3 ..t.......
4 ..........
5 ........rr

Turn = 124.
  0123456789
0 r.........
1 r.........
2 .........r
3 ..........
4 ..........
5 ..........
6 .........r
7 ..tt.....r
8 ..t.......
9 ..........
0 ..........
1 .tt.......
2 ..t.......
3 ..t.......
4 ..t.......
5 .....r....

Turn = 155.
  0123456789
0 .......r..
1 ..........
2 ..........
3 ..........
4 ..........
5 ..........
6 ..........
7 ..ttt.....
8 ..t.......
9 ..........
0 ..........
1 .tt.......
2 .tt.......
3 ..t.......
4 ..t.......
5 ..ttt.....

Turn = 186.
  0123456789
0 ..........
1 ..........
2 ..........
3 ..........
4 ..........
5 ..........
6 ..........
7 ..ttt.....
8 ..t.......
9 .....r....
0 ..........
1 .tt.......
2 .tt.......
3 ..t.......
4 ..t.......
5 ..ttt.....

Turn = 217.
  0123456789
0 ..........
1 ..........
2 ..........
3 ..........
4 ..........
5 ..........
6 ..........
7 ..ttt.....
8 ..t.......
9 ..........
0 ..........
1 rtt.......
2 .tt.......
3 ..t.......
4 ..t.......
5 ..ttt.....

Turn = 248.
  0123456789
0 .........r
1 ..........
2 ..........
3 ..........
4 ..........
5 ..........
6 ..........
7 ..ttt.....
8 ..t.......
9 ..........
0 ..........
1 .tt.......
2 .tt.......
3 .tt.......
4 ..t.......
5 ...tt.....

Turn = 279.
  0123456789
0 ..........
1 ..........
2 ..........
3 ..........
4 ..........
5 ..........
6 ..........
7 ..ttt.....
8 ..t.......
9 ..........
0 ..........
1 .tt.......
2 .tt.......
3 .tt.......
4 ..t.......
5 ...ttt....

Turn = 310.
  0123456789
0 ..........
1 ..........
2 ..........
3 ..........
4 ..........
5 ..........
6 ..........
7 ..ttt.....
8 ..t.......
9 ..........
0 ..........
1 .tt.......
2 .tt.......
3 .tt.......
4 ..t.......
5 ...ttt....

Turn = 341.
  0123456789
0 ..........
1 ..........
2 ..........
3 ..........
4 ..........
5 ..........
6 ..........
7 ..ttt.....
8 ..t.......
9 ..........
0 ..........
1 .tt.......
2 .tt.......
3 .tt.......
4 ..t.......
5 ...ttt....

Turn = 372.
  0123456789
0 ..........
1 ..........
2 ..........
3 ..........
4 ..........
5 ..........
6 ..........
7 ..ttt.....
8 ..t.......
9 ..........
0 ..........
1 .tt.......
2 .tt.......
3 .tt.......
4 ..t.......
5 ...ttt....

Turn = 403.
  0123456789
0 ..........
1 ..........
2 ..........
3 ..........
4 ..........
5 ..........
6 ..........
7 ..ttt.....
8 ..t.......
9 ..........
0 ..........
1 .tt.......
2 .tt.......
3 .tt.......
4 ..t.......
5 ...ttt....

Turn = 434.
  0123456789
0 ..........
1 ..........
2 ..........
3 ..........
4 ..........
5 ..........
6 ..........
7 ..ttt.....
8 ..t.......
9 ..........
0 ..........
1 .tt.......
2 .tt.......
3 .tt.......
4 ..t.......
5 ...ttt....

Turn = 465.
  0123456789
0 ..........
1 ..........
2 ..........
3 ..........
4 ..........
5 ..........
6 ..........
7 ..ttt.....
8 ..t.......
9 ..........
0 ..........
1 .tt.......
2 .tt.......
3 .tt.......
4 ..t.......
5 ...ttt....

Turn = 496.
  0123456789
0 ..........
1 ..........
2 ..........
3 ..........
4 ..........
5 ..........
6 ..........
7 ..ttt.....
8 ..t.......
9 ..........
0 ..........
1 .tt.......
2 .tt.......
3 .tt.......
4 ..t.......
5 ...ttt....

Turn = 527.
  0123456789
0 ..........
1 ..........
2 ..........
3 ..........
4 ..........
5 ..........
6 ..........
7 ..ttt.....
8 ..t.......
9 ..........
0 ..........
1 .tt.......
2 .tt.......
3 .tt.......
4 ..t.......
5 ...ttt....

Turn = 558.
  0123456789
0 ..........
1 ..........
2 ..........
3 ..........
4 ..........
5 ..........
6 ..........
7 ..ttt.....
8 ..t.......
9 ..........
0 ..........
1 .tt.......
2 .tt.......
3 .tt.......
4 ..t.......
5 ...ttt....

*** Darwin 6x5 ***
Turn = 0.
  01234
0 .....
1 .....
2 .....
3 .....
4 ...t.
5 ...h.

Turn = 29.
  01234
0 .....
1 .....
2 .....
3 .....
4 ...t.
5 h....

Turn = 58.
  01234
0 .....
1 .....
2 .....
3 .....
4 ...t.
5 h....

Turn = 87.
  01234
0 .....
1 .....
2 .....
3 .....
4 ...t.
5 h....

Turn = 116.
  01234
0 .....
1 .....
2 .....
3 .....
4 ...t.
5 h....

Turn = 145.
  01234
0 .....
1 .....
2 .....
3 .....
4 ...t.
5 h....

Turn = 174.
  01234
0 .....
1 .....
2 .....
3 .....
4 ...t.
5 h....

Turn = 203.
  01234
0 .....
1 .....
2 .....
3 .....
4 ...t.
5 h....

Turn = 232.
  01234
0 .....
1 .....
2 .....
3 .....
4 ...t.
5 h....

Turn = 261.
  01234
0 .....
1 .....
2 .....
3 .....
4 ...t.
5 h....

Turn = 290.
  01234
0 .....
1 .....
2 .....
3 .....
4 ...t.
5 h....

Turn = 319.
  01234
0 .....
1 .....
2 .....
3 .....
4 ...t.
5 h....

Turn = 348.
  01234
0 .....
1 .....
2 .....
3 .....
4 ...t.
5 h....

Turn = 377.
  01234
0 .....
1 .....
2 .....
3 .....
4 ...t.
5 h....

Turn = 406.
  01234
0 .....
1 .....
2 .....
3 .....
4 ...t.
5 h....

Turn = 435.
  01234
0 .....
1 .....
2 .....
3 .....
4 ...t.
5 h....

Turn = 464.
  01234
0 .....
1 .....
2 .....
3 .....
4 ...t.
5 h....

Turn = 493.
  01234
0 .....
1 .....
2 .....
3 .....
4 ...t.
5 h....

Turn = 522.
  01234
0 .....
1 .....
2 .....
3 .....
4 ...t.
5 h....

Turn = 551.
  01234
0 .....
1 .....
2 .....
3 .....
4 ...t.
5 h....

Turn = 580.
  01234
0 .....
1 .....
2 .....
3 .....
4 ...t.
5 h....

Turn = 609.
  01234
0 .....
1 .....
2 .....
3 .....
4 ...t.
5 h....

Turn = 638.
  01234
0 .....
1 .....
2 .....
3 .....
4 ...t.
5 h....

Turn = 667.
  01234
0 .....
1 .....
2 .....
3 .....
4 ...t.
5 h....

Turn = 696.
  01234
0 .....
1 .....
2 .....
3 .....
4 ...t.
5 h....

Turn = 725.
  01234
0 .....
1 .....
2 .....
3 .....
4 ...t.
5 h....

Turn = 754.
  01234
0 .....
1 .....
2 .....
3 .....
4 ...t.
5 h....

Turn = 783.
  01234
0 .....
1 .....
2 .....
3 .....
4 ...t.
5 h....

Turn = 812.
  01234
0 .....
1 .....
2 .....
3 .....
4 ...t.
5 h....

Turn = 841.
  01234
0 .....
1 .....
2 .....
3 .....
4 ...t.
5 h....

Turn = 870.
  01234
0 .....
1 .....
2 .....
3 .....
4 ...t.
5 h....

*** Darwin 13x10 ***
Turn = 0.
  0123456789
0 ..........
1 ..........
2 ..........
3 f..f..f...
4 ..........
5 ........f.
6 .......r..
7 .........h
8 t......h..
9 .r........
0 ...h....t.
1 .....t..f.
2 ......h...

Turn = 80.
  0123456789
0 ..r.r.....
1 ..........
2 ..........
3 ......f...
4 ..........
5 ........f.
6 .........r
7 ..........
8 .........t
9 ........tt
0 r.......tt
1 .....t..tt
2 ..........

Turn = 160.
  0123456789
0 .r.....r..
1 .r........
2 r.........
3 ..........
4 ..........
5 ........f.
6 ..........
7 .........t
8 .........t
9 ........tt
0 ........tt
1 ........tt
2 .........t

Turn = 240.
  0123456789
0 ..........
1 ..........
2 ..........
3 ..........
4 ..........
5 ..........
6 .........r
7 ........r.
8 .........t
9 ........tt
0 ........tt
1 ......r.rt
2 .....r.rtt

Turn = 320.
  0123456789
0 ..........
1 ..r.rr....
2 ..........
3 ..........
4 ..........
5 ..........
6 ..........
7 r.........
8 r.........
9 ........tt
0 ........tt
1 ........rt
2 .......rtt
